<@-B$
f&-8`
<-0@
xP$-(
E$-0 
$-@@
<- @
	P$-  
E&-0
P$-  
e&-0
<-  
<-  
E$-0
<-  
E$-0
<-  
E$-0
<-  
E$-0
<-  
$-  
	c$<
&- @
&-(@
$-  
c$-(`
D&-0
c$-(`
$&-0
d$- 
<SNB4
<-(@
$-0@
$-0@
<-(@
	4-P
B4- 
B0-0`
C$* 
&@*Q&Iu
<-  
+Q&Hu
<-  
$-H 
$-H 
4-  
k%& $
k%! 
@P- @
<- @
$-(`
B$! 
$-@@
$! n
U! n
c$-8@
1:- 
&!(C
q:- 
'.F+
&!0C
'.F+
J%-  
'- @
$- @
u0-  
$- @
B$+ 
c0-H@
c$! 
B0$ 
B$!@
$-  
c0-H@
c$! 
H$#@
H$#@
H$#@
H$#@
&-0 
C1#`
y$!("
C1#`
$#Xx
$#Xx
<H/E$
$-(@
c$! 
$-X@
I$!@L
c$!(
'!pC
@T-x@
@T&h
$! H
< yC
	<(y)%
@T-8 
R&@(
D&!(
&- `
c$!8
$-8 
%!XC
$-X@
c$- 
)%-(`
bT- 
%f- 
%!PC
d-0`
`T-(
	1-8
@P#Pf
*1-(
	1-8
@P#Pf
."& 
)5-0
<!(H
'- `
'- `
1&z7
<-(@
<-(@
B$!(
$!pK
%-(@
B$- @
%&- @
b0- 
7- @
7- @
7- @
%&- @
$!('
*%-  
$-8`
$!8'
<-H 
%!8'
V-  
<-(@
c$-0@
<-(@
<- @
&-(@
p$- @
c$> 
c$-0@
<-(@
$!0#
p&C0
1&-0
G$-(
0-  
c,!(Q
1&-(
c$- 
R&6K
$-8@
$-8@
Q$-8`
<-  
<-  
@/0&
@/0&
<@/R$
bT- `
&- `
<- @
$- @
0&- 
$&si
&-H 
Jq$@
$-  
Jr$P
$- @
JV$P
$-( 
$- @
Jq$@
JS$ 
JU$@
_)%h<k%
Jb&-8`
&-  
<(JE
<,JC
<0JC
JW$P
	<-8
OC&%
<%(E
JW$P
_)%hDk%
JB$- @
JU$@
$-( 
Jq$@
JW$P
@JC$
&-(@
@JI$
	<-8
JV$@
<-(@
	<- 
JB$- @
JT$0
	<-8
$-0`
SNc4
c4$(
B4$ 
	<-X
-%-`@
&YB4&
4&0K
c$&(e
E$&Yc4
 <c4
c4+0
<pVc4*
B08;
B08;
B$-(
C&-(
&-(@
C&* 
C&* 
D&-(
D&-(
D&-(
D&-(
D&-(
c0$0
%&8!
J18d
$%PM
c4-0
B0$(
%&8!
B4$ 
<%PH
<%Pf
B4$PB
c4$ 
hb&!
hs&-  
@h0&
hB$ 
<-(`
hB$ 
hB$! 
hB$! 
B$- 
hB$! 
hB$! 
B$- 
hB$ 
hB$ 
hB$ 
jp$0
hB$!
jp$@
hB$! 
jP$0
hB$! 
hB$! 
hB$! 
jP$ 
jP$ 
$@hd$
jP$ 
$@hd$
c0B 
K(! J=#
=3&J
K,!dJ
KC* J,!dJ
JC* J,!dJ
'-( 
'-(@
&-(@
&-(`
K|IjJ
K|IjJ
H<#)J
EB48
EB48
K<K+J<S,J
<08B4 8
<Hkc$
(mQ$
<-  
'-  
$-H 
2&\l
$-8@
$- `
<- @
<-(@
<-(`
$-0 
<-(@
$-  
$-8 
@T-(
$-  
$- `
$- `
$- `
$- `
$- `
$- `
$- `
$- `
$- `
$- `
$- `
<- @
$-  
E&du
6B4T
B4$(
B4$(
'-  
<-  
 B4\
@P-(@
B0B#
<-  
<-  
c0%8
	$-P
	$-0
$-  
	$-P
$-  
$!xC
Q9qvP
$$PG
QYqvP
I/q!(
y(q!0
Q9q@@
$$PG
QYpv
Qypv
QIqvP
V(q@
QYpv
Qjpv
Q9qvP
QIqvP
$$PG
QYpv
Qjpv
QYqvP
QIqvP
I/q!(
QYpv
Qypv
y(q!0
QIq@@
$$PG
I+q 
I q 
I+q 
  B4
@c0,
<- `
'-8@
%&-H
 B4@
 B40
@c40
  B4
<% D
 B48
b&#(
<  B4
QT- 
4&-  
R&-  
"9-h
B4-X
0	<0
)5! 
mJ&0
c4!0
 c4@
<- @
B4-H
 c4 
$-(@
B4-0
$-(@
&-0`
pB4!
&-0`
<8Ac$
<-(`
$-0@
$-@`
$-8`
$-(`
$-(@
H&- 
$-0 
$-(`
H&-  
$-(`
$-8`
$-(`
$-8`
$-(`
$-(`
<-  
%-0 
$-  
!B4*
!B4*
c$! 
'- @
c4I?
'- @
c4I?
'- @
c4I?
<- `
F- @
F- @
@T- `
c4$P
$-0@
<d_B4$
c4- @
<- @
<- @
<- @
4B4!
!B4*
!B4*
$-  
0&-(
	<-0`
)%- 
	<! I
	<- @
UBH	
E2!0b
D- @
@TB]
<a3!4
<-W!4
<h!!4
<a3!4
<-W!4
<h!!4
<a3!4
<-W!4
B4$(
D-0`
<h!!4
<h!!4
B4$0
B4$ b
B4!H
<U2!4
<O8!4
D$ f
<`B!4
D-(@
c4I?
<CD!4
<CD!4
<CD!4
<21!4
$- @
	<- 
)%-( 
D-(@
$#0d
@TB0
c4?>
<23B4*
&- @
D- @
$*Pl
c$*Xv
D! U
B$-0
@T-0
D- @
@TBa
@TBa
<4/!4
'-0@
<h!!4
@T- 
<- @
@T-(
q&- @
<- @
1&- @
<- @
c4$(
<B4*
D- @
<B4*
<`B!4
<`B!4
c4$(
,c$H-
$- @
,B$H-c$
%0.)%T
$-0@
,B$H-c$
%!0I
<-  
%#PE
DdV0
$- @
$-(@
QB4*
I$-@
I$-@
 #:	
$-(@
r&<(
$!0T
B4-(
B0- 
&!H"
<!(b
c4$@C
$6!8
&!PG
L$-h
B4-Pe
q- @
@T- 
q%HH
$-8`
,-@ 
	$- @
$!NB,
$- @
@\-  
$- @
@\- 
@\- @
@\- 
$-  
$-(@
@P-(
90c$$
`T-8
2&-8
$-  
B4-(
P,c$-(
4-Pe
pH8Cp
Dp%0b
xH8Cp
bP'@
)58L	
)58L	
#Ip%
#Ip%
Q$- 
Hp%0b
@T- 
)58L	
)58L	
)58L	
)58L	
dp-@
J58T
J58T
)58L	
)58L	
J58T
J58T
$-0@
@U-(
B$-( 
$#8t
B$-  
B$-( 
D&?(
B$-  
$- "
$- "
Bd- 
3!0F
B$-(`
SB$`
$`UB$d
$`UB$
$`UB$
s6`UB$
Sc$A
b2- 
1&-(@
'- @
$#HI
0+8k
J%!@'
$-(`
B$- 
1&- 
"&- 
c$-(@
<-  
<-  
<-0`
)%*02
$-( 
r*- 
$-(@
&-(@
8'! 
b0+01
0+(1
C0! 
"2- `
DT+ D
g%-P
C0+ 
$-0@
Bd- 
4$($
B4$(
4$($
B4$(
B0@0
B$!(f
B0@0
B$!(f
B0@0
B$!(f
0-(@
$%0C
B&- @
c$!(f
R&-  
Bd-  
R&-  
Bd-  
B$! 
B$! 
'-P 
'-P 
J%$HY
$-8@
@P- 
$-0 
<-  
$-8@
$-H`
$!(C
$!(C
$!(C
<-0@
$-H 
$-H@
$-8@
$-H`
$-8@
$-H`
$!(C
$-8`
<-  
B4-(
<-8`
B4-( 
$&-0@
$-(`
B4-(
$-  
0&-(@
<-X@
$- `
<-  
 1&0
<<V!$
1-( 
@P:*
C1* '
b1%XC
B$x 
$-(`
C1* 
b1%XC
c$<(
c$B(
B$@ 
$-0`
PsIIlibmc   2540
PsIIlibmrpc 2530
PsIIlibgraph2500
PsIIlibdma  2500
PsIIlibpad  2500
PsIIlibpkt  2500
PsIIlibcdvd 2530
PsIIlibmpeg 2500
  ""%&%##"#&&(((00..88:EES
PsIIlibsdr  2530
PsIIlibipu  2500
  ""%&%##"#&&(((00..88:EES
)%J)
9PsIIlibnet  2530
PsIIlibkernl2550
GC$- 
$! H
$dGC
<LGC
<PGC
<\GC
<TGC
<XGC
$(GH
<- `
<<Gb
<8Gb
<,Gb
<lGf
<hGC
$! C
$@ge%
@gd%
"%-8
@gf%-8`
$@gD&
@gT$
$@gB
@gF&
%-@@
<@l_
<Pl]
<@l_
7-(@
SNR1
SetBgmVersion__13VISoundDevicei
VISetExpansionFlags__FUi
VISetFeatureFlags__FUi
VISetDiscFlags__FUi
VISetGameCode__FPCc
SetDefault__10VILanguage12VILanguageID
VIMemCardSetProductId__FPCc
VIMemCardSetProductTitle__FPCc
VICdStreamInit__Fv
EnableIopStreaming__6VIFilei
Init__7VITimer
VIStartKeyboardDriver__Fv
ClearVRAM__FUcUcUcUc
VIGetGameOptions__Fv
VIStopKeyboardDriver__Fv
setup_main__Fv
Username__C13VIGameOptions
Password__C13VIGameOptions
station_main__FPcT0
client_main__FPcT0
sceDNAS2InstPersonalizeDataLength_nohdd
sceDNAS2InstPersonalizeData_nohdd
sceDNAS2InstExtractDataLength_nohdd
sceDNAS2InstExtractData_nohdd
unpack_buffer
crypt_error
sceDNAS2InstInit_nohdd
link
sceGsResetGraph
_ctype_
sceGsSwapDBuffDc
strtoul
strcat
__errno
sceCdStInit
inflate
__infinity
vfprintf
fmodf
sceGszbufaddr
sceCdRead
ezNetCnfGetCombination
floor
sceGifPkAddGsData
sceInetCtlGetState
powf
sceMpegAddStrCallback
compress2
sceCdSync
VSync
RemoveIntcHandler
lgKbdEnumerate
sceMcWrite
atan2f
AddIntcHandler
sceMcDelete
ftell
srand
sceInetAddress2String
sceInetRecvFrom
sceMcGetInfo
strncasecmp
GetThreadId
RemoveDmacHandler
_end
ReferThreadStatus
_sceCd_cd_scmd
AddDmacHandler
strcspn
sqrt
sceIoctl
GetOsdConfigParam
sceSifMInitRpc
ezNetCtlDownInterface
rand
memmove
lgKbdRead
sceInetGetInterfaceList
lgKbmInit
sceSdRemote
sceMcClose
strdup
strncpy
sceInetClose
SetAlarm
abort
GetOsdConfigParam2
iWakeupThread
sceInetOpen
sceVu0ApplyMatrix
sceGsResetPath
crc32
sceMpegReset
scePadSetActDirect
sceMpegIsEnd
SetGsCrt
fwrite
sceMcFlush
scePadGetState
sceCdSearchFile
sceMcInit
DisableIntc
sceSifAllocIopHeap
sceMcChdir
_InitSys
Exit
rename
fprintf
ezNetCtlSetCombination
sceMcSetFileInfo
VSync2
_sceCd_cd_ncmd
fgets
strlen
CreateThread
_sceCd_scmd_semid
sqrtf
EIntr
WakeupThread
atof
sceRead
sceCdStStart
atoi
SignalSema
vprintf
memalign
sceCdDiskReady
memcmp
fclose
sceInetAddress2Name
DisableDmac
stat
inflateEnd
sceSifMExitRpc
vsprintf
ezNetCnfGetProperties
printf
strncat
scePadPortClose
gPatchPresent
sceDevctl
sceSdRemoteInit
fflush
strstr
scePadSetMainMode
sceGsSyncPath
sceCdReadClock
sceMcFormat
log10
sceMcMkdir
_cleanup
sceSifUnloadModule
strupr
sceInetAbort
sceMpegInit
mktime
GsPutIMR
free
sceDmaReset
sceMpegAddCallback
memset
sceSifBindRpc
sceInetSend
sceSifDmaStat
RotateThreadReadyQueue
sceLibnetTerminate
strcmp
getpid
sceMcOpen
sceSifAddCmdHandler
strlwr
iSignalSema
strtok
strtol
gRelInfo
VIDisplayScreen16__FPCcib
remove
sceMpegDelete
acos
sceCdInit
inflateInit_
malloc_stats
_stack
bsearch
ezNetCtlUpInterface
sprintf
sceCdStRead
sinf
qsort
sceSifFreeIopHeap
sceSifSetDma
atan2
sceGsSetDefDBuffDc
_sceCd_scmd_prechk
EnableIntc
perror
fputc
WaitSema
sceGsPutDispEnv
acosf
SleepThread
preparePowerOff__Fv
CreateSema
sceMpegGetPicture
sceMcSeek
sceCdNcmdDiskReady
sceInetCreate
sceDmaGetChan
sceGifPkReset
lgKbdClose
_sceCd_ncmdrdata
sceInetPoll
lgKbMPrepareForRebootIOP
ReleaseAlarm
TerminateThread
_sceCd_ncmd_semid
sceSifCallRpc
_sceCd_scmdrdata
EnableDmac
fopen
isnan
calloc
sceVu0CopyMatrix
DeleteThread
VIDisplayLoadingScreen__Fb
memcpy
sceGifPkTerminate
localtime
main
sceGsSyncV
lgKbdEnumHint
gzopen
ChangeThreadPriority
cosf
sceMcRead
mallinfo
sceMcGetDir
initEzNetCnf
strcasecmp
sceMcSync
atanf
DIntr
sceGsSetDefDispEnv
sceCdGetError
strncmp
scePadPortOpen
sceWrite
ezNetCnfGetCombinationList
sceDmaSend
lgKbdSetRepeatRate
sceInetSendTo
gzwrite
sceSifLoadModule
scePrintf
_sceCd_ncmd_prechk
sceLseek
sceInetRecv
scePadInfoMode
DeleteSema
exitEzNetCnf
index
sceInetControl
ezNetCtlGetStatus
sceInetName2Address
sceMpegCreate
getenv
bcopy
sceCdMmode
strcpy
strchr
lgKbdOpen
sceLibnetInitialize
fseek
sceDmaSync
sceLibnetWaitGetAddress
realloc
sceClose
sceDmaSendN
sceSifCheckStatRpc
PollSema
tanf
gzclose
scePadInfoAct
malloc
sceSifStopModule
_impure_ptr
sceGifPkSize
scePadGetReqState
StartThread
__moddi3
__udivdi3
sceSifSetCmdBuffer
scePadRead
_heap_size
gzerror
sscanf
_stack_size
scePadSetActAlign
sceCdStStop
sceGifPkInit
sceLibnetRegisterHandler
uncompress
_fbss
sceMpegDemuxPss
fread
FlushCache
ezNetCnfGetDefault
sceOpen
ENTRYPOINT
sn_dll_header_root
Zero__9VIRelInfo
_GLOBAL_$I$gRelInfo
__main
__10VILauncher
init_malloc
snInitDllSystem
sceSifInitRpc
sceSifInitIopHeap
Init__10VILauncher
exit
LoadRel__10VILauncherPCcPPvPiT3
_$_10VILauncher
Setup__10VILauncher
UnloadRel__10VILauncherPPvPiT2
UnloadRels__10VILauncherP9VIRelInfo
Free__10VILauncher
LoadExecPS2
Station__10VILauncher
UnloadUtilRel__10VILauncher
Client__10VILauncher
LoadUtilRel__10VILauncher
malloc_get_base
malloc_get_guard
malloc_get_top
_malloc_r
mallopt
_memalign_r
_realloc_r
_free_r
gPowerOffSid
gPowerOffTerminate
gPowerOffTid
unpreparePowerOff__Fv
PreparePowerOff__10VILauncher
UnpreparePowerOff__10VILauncher
LoadIrx__10VILauncherPCciT1
LoadIrx2__10VILauncherPCciT1
UnpackAndVerify__10VILauncherPviPPvPii
sceSifSearchModuleByName
sceCdPowerOff
sceCdPOffCallback
__builtin_delete
sceSifRebootIop
sceSifSyncIop
sceFsReset
initEzNetCtl
scePadInit
scePadEnd
sceMcEnd
exitEzNetCtl
sceSifExitCmd
snDllLoaded
__builtin_vec_new
__builtin_vec_delete
snDllUnload
sceGifPkRefLoadImage
sceGifPkEnd
ezNetCnfGetCount
ezNetCnfSetDefault
ezNetCtlSetProperties
ezNetCtlSetAutoMode
adler32
__umoddi3
compress
deflateInit_
deflate
deflateEnd
get_crc_table
deflate_copyright
deflateInit2_
deflateReset
deflateSetDictionary
deflateParams
deflateCopy
zcalloc
zcfree
z_errmsg
_tr_init
_tr_align
_tr_stored_block
_tr_flush_block
_dist_code
_length_code
gzdopen
gzsetparams
gzread
gzgetc
gzgets
gzprintf
gzputc
gzputs
gzflush
gzseek
gzrewind
gztell
gzeof
inflateInit2_
fdopen
inflateReset
rewind
inflate_blocks_reset
inflate_blocks_new
inflate_blocks
inflate_blocks_free
inflate_set_dictionary
inflate_blocks_sync_point
inflate_codes_free
inflate_trees_fixed
inflate_codes_new
inflate_flush
inflate_trees_bits
inflate_mask
inflate_trees_dynamic
inflate_codes
inflate_fast
inflateSetDictionary
inflateSync
inflateSyncPoint
inflate_copyright
fcntl
_fcntl
_tr_tally
__muldi3
zlibVersion
zError
_start
_exit
__do_global_dtors
__do_global_ctors
__CTOR_LIST__
__DTOR_LIST__
_GLOBAL_$F$__builtin_delete.._.._src_gcc_cp_new2.cc1GeU73
__throw
__start_cp_handler
__check_eh_spec
__cp_pop_exception
terminate__Fv
_GLOBAL_$F$__builtin_vec_delete.._.._src_gcc_cp_new2.ccOZ4KZr
_GLOBAL_$F$__builtin_vec_new.._.._src_gcc_cp_new2.ccBLDubu
__builtin_new
__tf9bad_alloc
__default_terminate
__terminate_func
__terminate
__throw_type_match
__empty
__get_eh_context
__get_eh_info
__get_dynamic_handler_chain
__sjthrow
__sjpopnthrow
__eh_rtime_match
__get_eh_table_version
__get_eh_table_language
__unwinding_cleanup
__rethrow
_GLOBAL_$F$__default_terminate
__frame_state_for
__default_unexpected__Fv
set_terminate__FPFv_v
set_unexpected__FPFv_v
unexpected__Fv
__cp_exception_info
__cp_eh_info
__eh_alloc
__eh_free
__cplus_type_matcher
__cp_push_exception
__uncatch_exception
__tf13bad_exception
_vt$13bad_exception
_vt$9exception
_$_13bad_exception
__throw_bad_cast
__throw_bad_typeid
uncaught_exception__Fv
what__C9exception
__tf9exception
_$_9exception
__13bad_exception
__ti13bad_exception
__ti9exception
__9exception
_GLOBAL_$F$terminate__Fv
__throw_type_match_rtti
__is_pointer__FPv
_vt$8bad_cast
_$_8bad_cast
_vt$10bad_typeid
_$_10bad_typeid
__rtti_si
__rtti_user
__register_frame_info
__register_frame
__register_frame_info_table
__register_frame_table
__deregister_frame_info
__deregister_frame
nothrow
set_new_handler__FPFv_v
__new_handler
_vt$9bad_alloc
_$_9bad_alloc
what__C9bad_alloc
__vn__FUiPv
__nw__FUiPv
__ti9bad_alloc
_GLOBAL_$F$nothrow
_GLOBAL_$F$__builtin_new.._.._src_gcc_cp_new1.ccKINnb5
_$_9type_info
_vt$9type_info
__eq__C9type_infoRC9type_info
__rtti_class
_vt$17__class_type_info
_vt$14__si_type_info
_vt$16__user_type_info
dcast__C16__user_type_infoRC9type_infoiPvPC9type_infoT3
dcast__C14__si_type_infoRC9type_infoiPvPC9type_infoT3
dcast__C17__class_type_infoRC9type_infoiPvPC9type_infoT3
__tf17__class_type_info
_$_17__class_type_info
__tf14__si_type_info
_$_14__si_type_info
__tf16__user_type_info
_$_16__user_type_info
__tf10bad_typeid
__tf8bad_cast
__tf9type_info
__17__class_type_infoPCcPCQ217__class_type_info9base_infoUi
__ti17__class_type_info
__ti16__user_type_info
__14__si_type_infoPCcRC16__user_type_info
__ti14__si_type_info
__16__user_type_infoPCc
__ti9type_info
__10bad_typeid
__ti10bad_typeid
__8bad_cast
__ti8bad_cast
__ne__C9type_infoRC9type_info
name__C9type_info
__9type_infoPCc
_GLOBAL_$F$_$_9type_info
before__C9type_infoRC9type_info
__dynamic_cast
__tf19__pointer_type_info
__tf16__attr_type_info
__tfv
__tf16__func_type_info
__rtti_ptr
_vt$19__pointer_type_info
__rtti_attr
_vt$16__attr_type_info
__rtti_func
_vt$16__func_type_info
__rtti_ptmf
_vt$16__ptmf_type_info
__rtti_ptmd
_vt$16__ptmd_type_info
__rtti_array
_vt$17__array_type_info
__tiv
_vt$19__builtin_type_info
__tfx
__tix
__tfl
__til
__tfi
__tii
__tfs
__tis
__tfb
__tib
__tfc
__tic
__tfw
__tiw
__tfr
__tir
__tfd
__tid
__tff
__tif
__tfUi
__tiUi
__tfUl
__tiUl
__tfUx
__tiUx
__tfUs
__tiUs
__tfUc
__tiUc
__tfSc
__tiSc
__tf17__array_type_info
_$_17__array_type_info
__tf16__ptmd_type_info
_$_16__ptmd_type_info
__tf16__ptmf_type_info
_$_16__ptmf_type_info
_$_16__func_type_info
__tf19__builtin_type_info
_$_19__builtin_type_info
_$_16__attr_type_info
_$_19__pointer_type_info
__ti17__array_type_info
__ti16__ptmd_type_info
__ti16__ptmf_type_info
__ti16__func_type_info
__ti19__builtin_type_info
__ti16__attr_type_info
__ti19__pointer_type_info
_GLOBAL_$F$before__C9type_infoRC9type_info
GLibData
lgMouseClose
lgKbdReInit
lgKbdReadState
lgIsKeyPressed
lgIsBitSet
lgKbdTranslate
lgKbdSetupTranslationTable
lgKbdResetTranslationTable
lgMouseEnumerate
lgMouseEnumHint
lgMouseOpen
lgMouseRead
lgKbMSuspendThread
lgKbMResumeThread
lgKbMChangeThreadPriority
initialise_keyboard
get_time
IsEventModifier
initialise_event_list
TranslateEvent
qsort_translate_table
initialise_mouse
SuspendThread
ResumeThread
connect_to_iop_server
init_ee_timer
CreateReaderThread
initialise_key_press_buffer
initialise_keyboard_state
InitialiseIopDriver
_lmcGetClientPtr
sceMcChangeThreadPriority
sceMcGetSlotMax
sceMcUdCheckNewCard
sceMcRename
sceMcUnformat
sceMcGetEntSpace
sceSifWriteBackDCache
sceSifMBindRpc
sceSifMBindRpcParam
sceSifMUnBindRpc
sceSifMCallRpc
sceSifSendCmd
sceSifGetSreg
SN_LOADED_RELMODS
snDllMove
sceGsGetGParam
sceGsSetDefDrawEnv
sceGsSetDefDrawEnv2
sceGsSetDefClear
sceGsPutDrawEnv
sceDmaPause
sceDmaPutEnv
sceDmaGetEnv
sceDmaPutStallAddr
sceDmaSendI
sceDmaRecv
sceDmaRecvN
sceDmaRecvI
sceDmaWatch
sceDmaRestart
scePadGetFrameCount
scePadStateIntToStr
scePadReqIntToStr
scePadInfoComb
scePadInfoPressMode
scePadEnterPressMode
scePadExitPressMode
scePadGetSlotMax
scePadSetWarningLevel
SyncDCache
sceGifPkCnt
sceGifPkOpenGifTag
sceGifPkAddGsAD
sceGifPkCloseGifTag
sceGifPkReserve
sceGifPkRef
sceVu0MulMatrix
sceVu0OuterProduct
sceVu0InnerProduct
sceVu0Normalize
sceVu0TransposeMatrix
sceVu0InversMatrix
sceVu0DivVector
sceVu0DivVectorXYZ
sceVu0InterVector
sceVu0AddVector
sceVu0SubVector
sceVu0MulVector
sceVu0ScaleVector
sceVu0TransMatrix
sceVu0CopyVector
sceVu0FTOI4Vector
sceVu0FTOI0Vector
sceVu0ITOF4Vector
sceVu0ITOF0Vector
sceVu0UnitMatrix
sceVu0RotMatrixZ
sceVu0RotMatrixX
sceVu0RotMatrixY
sceVu0RotMatrix
sceVu0ClampVector
sceVu0CameraMatrix
sceVu0NormalLightMatrix
sceVu0LightColorMatrix
sceVu0ViewScreenMatrix
sceVu0DropShadowMatrix
sceVu0RotTransPersN
sceVu0RotTransPers
sceVu0CopyVectorXYZ
sceVu0InterVectorXYZ
sceVu0ScaleVectorXYZ
sceVu0ClipScreen
sceVu0ClipScreen3
sceVu0ClipAll
sceVpu0Reset
SCE_CD_debug
_sceCd_c_cb_sem
_sceCd_ee_read_mode
sceCdDelayThread
sceCdCallback
_sceCd_cd_callback
sceCdCbfunc_num
sceCdCbfunc_number
_Cdvd_cbLoop
sceCdInitEeCB
_sceCd_cd_read_intr
sceCdLayerSearchFile
sceCdSyncS
_sceCd_scmdsdata
_sceCd_ncmdsdata
_sceCd_rd_intr_data
_sceCd_Read_cur_pos
ExitDeleteThread
sceSifRemoveCmdHandler
sceCdStream
sceCdStSeekF
sceCdStSeek
sceCdStPause
sceCdStResume
sceCdStStat
_strmap
_type2id
_id2type
sceMpegDemuxPssRing
_pack_header
_PES_packet
_system_header
_sysbitInit
_sysbitNext
_sysbitPtr
_sysbitGet
_sysbitMarker
_Error
_sysbitJump
_alalcInit
_alalcAlloc
sceMpegClearRefBuff
_alalcSetDynamic
sceMpegAddBs
sceMpegGetPictureRAW8
sceMpegGetPictureRAW8xy
sceMpegSetDecodeMode
sceMpegGetDecodeMode
sceMpegIsRefBuffEmpty
_dispatchMpegCallback
_dispatchMpegCbNodata
sceMpegSetDefaultPtsGap
sceMpegResetDefaultPtsGap
sceMpegSetImageBuff
sceMpegDispWidth
sceMpegDispHeight
sceMpegDispCenterOffX
sceMpegDispCenterOffY
sceSetBrokenLink
sceSetPtm
_alalcFree
_alalcRest
_sceMpegFlush
sceIpuInit
_defStopDMA
_defRestartDMA
_clearOnce
_sendDataToIPU
_clearEach
_initSeqAgain
_Error1
_nextHeader
_updateRefImage
_decPicture
_outputFrame
_lastFrame
_ErrMessage
_sequenceHeader
_initSeq
_sequenceExtension
_sequenceDisplayExtension
_sequenceScalableExtension
_unknown_extension
_pictureSpatialScalableExtension
_pictureTemporalScalableExtension
_ipuSetMPEG1
_dispRefImage
_dispRefImageField
sceIpuSync
_nextBit
_waitIpuIdle
_sendIpuCommand
_defIQM
_defNIQM
_extensionAndUserData
sceIpuStopDMA
sceIpuRestartDMA
_getAllRefs
_getRef0
_dualPrimeVector
_rix_000
_rix_001
_rix_010
_rix_011
_rix_100
_rix_101
_rix_110
_rix_111
_ri0_000
_ri0_001
_ri0_010
_ri0_011
_ri0_100
_ri0_101
_ri0_110
_ri0_111
_copyRefImage
_copyAddRefImage
_waitBdecOut
_dmVector
_ipuVdec
_mbAddressIncrement
_peepBit
_flushBuf
_pictureData0
_nextStartCode
_sliceB
_motionVectors
_motionVector
_isDirty
_waitIpuIdle64
_extrainfo
_groupOfPicturesHeader
_pictureHeader
_quantMatrixExtension
_copyrightExtension
_pictureDisplayExtension
_pictureCodingExtension
_cpr8
_showCount
_csc_storeRefImage
AddDmacHandler2
sceSdTransToIOP
sceSdCallBack
_sce_sdr_transIntr0Hdr
_sce_sdr_transIntr0Arg
_sce_sdr_transIntr1Hdr
_sce_sdr_transIntr1Arg
_sce_sdr_spu2IntrHdr
_sce_sdr_spu2IntrArg
_sce_sdr_gDMA0CB
_sce_sdr_gDMA1CB
_sce_sdr_gIRQCB
sceSdRemoteCallbackInit
sceSifSetRpcQueue
sceSifRegisterRpc
sceSifRpcLoop
sceInetInterfaceControl
sceInetGetRoutingTable
sceInetGetNameServers
sceInetChangeThreadPriority
sceInetGetLog
sceInetAbortLog
sceInetCtlUpInterface
sceInetCtlDownInterface
sceInetCtlSetAutoMode
sceLibnetUnregisterHandler
sceLibnetSetConfiguration
sceLibnetWaitGetInterfaceID
__kernel_cos
dpsub
__ieee754_rem_pio2
__kernel_sin
dpadd
dpcmp
fabsf
__kernel_cosf
__ieee754_rem_pio2f
__kernel_sinf
__kernel_tanf
__ieee754_acos
__fdlib_version
fabs
matherr
__ieee754_atan2
__ieee754_log
__ieee754_log10
__ieee754_pow
finite
dpmul
rint
__ieee754_sqrt
__ieee754_acosf
isnanf
fptodp
dptofp
__ieee754_atan2f
__ieee754_fmodf
__ieee754_powf
finitef
__ieee754_sqrtf
dpdiv
atan
litodp
scalbn
dptoli
__kernel_rem_pio2
scalbnf
__kernel_rem_pio2f
floorf
copysign
copysignf
raise
strtod
_calloc_r
__sinit
_fdopen_r
__sflags
__sfp
__sread
__swrite
__sseek
__sclose
_fwalk
__srefill
memchr
__sfmoreglue
_cleanup_r
_fopen_r
_open_r
__swbuf
_malloc_trim_r
__malloc_lock
__malloc_av_
__malloc_trim_threshold
__malloc_top_pad
__malloc_unlock
_sbrk_r
__malloc_sbrk_base
__malloc_current_mallinfo
__smakebuf
_fstat_r
fstat
errno
__sfvwrite
_findenv
_findenv_r
_getenv_r
__env_lock
environ
__env_unlock
localtime_r
__divdi3
isatty
__malloc_max_sbrked_mem
__malloc_max_total_mem
_mstats_r
mstats
_mallinfo_r
_malloc_stats_r
_mallopt_r
fiprintf
open
_perror_r
fputs
strerror
_printf_r
_vfprintf_r
_remove_r
_unlink_r
_rename_r
_link_r
sbrk
_init_signal_r
_signal_r
_raise_r
__sigtramp_r
signal
_init_signal
__sigtramp
_getpid_r
_kill_r
kill
_sprintf_r
__svfscanf
_read_r
_lseek_r
_write_r
_close_r
_strdup_r
_user_strerror
_strtod_r
strtodf
__mprec_tens
__floatdidf
__mprec_bigtens
__mprec_tinytens
_ulp
_s2b
_lshift
__mcmp
_ratio
__fixdfdi
_Bfree
_Balloc
_d2b
_i2b
_pow5mult
_multiply
__mdiff
strtok_r
_strtol_r
_strtoul_r
localeconv
__swsetup
__mb_cur_max
_mbtowc_r
isinf
_dtoa_r
__sccl
ungetc
write
close
_hi0bits
_multadd
vfiprintf
unlink
_setlocale_r
_localeconv_r
setlocale
lseek
__malloc_update_mallinfo
_lo0bits
_b2d
_mprec_log10
read
__submore
_vfiprintf_r
__ps2_klibinfo__
RFU000_FullReset
ResetEE
RFU003
_Exit
RFU005
_LoadExecPS2
_ExecPS2
RFU008
RFU009
AddSbusIntcHandler
RemoveSbusIntcHandler
Interrupt2Iop
SetVTLBRefillHandler
SetVCommonHandler
SetVInterruptHandler
AddIntcHandler2
_EnableIntc
_DisableIntc
_EnableDmac
_DisableDmac
_iEnableIntc
_iDisableIntc
_iEnableDmac
_iDisableDmac
iSetAlarm
iReleaseAlarm
ExitThread
iTerminateThread
DisableDispatchThread
EnableDispatchThread
iChangeThreadPriority
_iRotateThreadReadyQueue
ReleaseWaitThread
iReleaseWaitThread
iReferThreadStatus
_iWakeupThread
CancelWakeupThread
iCancelWakeupThread
_iSuspendThread
iResumeThread
JoinThread
RFU060
RFU061
EndOfHeap
RFU063
iPollSema
ReferSemaStatus
iReferSemaStatus
RFU073
SetOsdConfigParam
GetGsHParam
GetGsVParam
SetGsHParam
SetGsVParam
RFU080_CreateEventFlag
RFU081_DeleteEventFlag
RFU082_SetEventFlag
RFU083_iSetEventFlag
RFU084_ClearEventFlag
RFU085_iClearEventFlag
RFU086_WaitEvnetFlag
RFU087_PollEvnetFlag
RFU088_iPollEvnetFlag
RFU089_ReferEventFlagStatus
RFU090_iReferEventFlagStatus
RFU091
EnableIntcHandler
iEnableIntcHandler
DisableIntcHandler
iDisableIntcHandler
EnableDmacHandler
iEnableDmacHandler
DisableDmacHandler
iDisableDmacHandler
KSeg0
EnableCache
DisableCache
GetCop0
CpuConfig
iGetCop0
iFlushCache
iCpuConfig
sceSifStopDma
SetCPUTimerHandler
SetCPUTimer
SetOsdConfigParam2
GsGetIMR
iGsGetIMR
iGsPutIMR
SetPgifHandler
SetVSyncFlag
RFU116
_print
isceSifDmaStat
isceSifSetDma
sceSifSetDChain
isceSifSetDChain
sceSifSetReg
sceSifGetReg
_ExecOSD
Deci2Call
PSMode
MachineType
GetMemorySize
_InitTLB
sceResetttyinit
ioctl
sceTtyInit
sceTtyWrite
sceTtyRead
_sceSDC
iSyncDCache
_sceIDC
InvalidDCache
iInvalidDCache
QueryIntrContext
iEnableIntc
iDisableIntc
iEnableDmac
iDisableDmac
InitThread
iRotateThreadReadyQueue
iSuspendThread
kprintf
sceDeci2ExRecv
sceDeci2ExSend
sceDeci2ReqSend
sceDeci2Poll
sceDeci2Open
_printf
kputs
__fixunsdfdi
sceSifSetSreg
sceSifGetDataTable
sceSifInitCmd
sceSifSetSysCmdBuffer
isceSifSendCmd
sceSifExitRpc
sceSifGetOtherData
sceSifRemoveRpc
sceSifRemoveRpcQueue
sceSifGetNextRequest
sceSifExecRequest
_sceFs_q
scePowerOffHandler
sceFsInit
sceIoctl2
sceRemove
sceMkdir
sceRmdir
sceFormat
sceAddDrv
sceDelDrv
sceDopen
sceDclose
sceDread
sceGetstat
sceChstat
sceRename
sceChdir
sceSync
sceMount
sceUmount
sceLseek64
sceSymlink
sceReadlink
sceSifAllocSysMemory
sceSifFreeSysMemory
sceSifLoadIopHeap
sceSifQueryMemSize
sceSifQueryMaxFreeMemSize
sceSifQueryTotalFreeMemSize
sceSifQueryBlockTopAddress
sceSifQueryBlockSize
sceSifLoadFileReset
sceSifSearchModuleByAddress
sceSifLoadModuleBuffer
sceSifLoadStartModuleBuffer
sceSifLoadStartModule
sceSifLoadElfPart
sceSifLoadElf
sceSifGetIopAddr
sceSifSetIopAddr
sceSifResetIop
sceSifIsAliveIop
__sce_sema_id
__sce_eh_sema_id
GetSystemCallEntry
InitAlarm
InitExecPS2
InitTLBFunctions
SysExecPS2Entry
ExecPS2
ExecOSD
_kExecArg
InitTLB
sceDeci2Close
sceDeci2ExReqSend
sceDeci2ExLock
sceDeci2ExUnLock
_kTLBRefillHandler
SetTLBHandler
_kDebugHandler
SetDebugHandler
PutTLBEntry
iPutTLBEntry
SetTLBEntry
iSetTLBEntry
GetTLBEntry
iGetTLBEntry
ProbeTLBEntry
iProbeTLBEntry
ExpandScratchPad
TLBInfo
_kTLBException
_kDebugException
_kExitTLBHandler
_xlaunch
dptoul
__pack_d
__unpack_d
__fpcmp_parts_d
__negdf2
__make_dp
__make_fp
__pack_f
__unpack_f
fpadd
fpsub
fpmul
fpdiv
__fpcmp_parts_f
fpcmp
sitofp
fptosi
fptoui
__negsf2
sn_frame_table
sn_reg_frame
sn_dereg_frame
bad_alloc
launcher init() failed!
SUPPORT
EQOA
BASLUS-20744EQONLINE
EverQuest Online
Adv. Frontiers
VICdStreamInit() failed
MCERR
SETUP
STATION
language
cdrom0:\NTGUI2.ELF;1
cdrom0:\SLUS_207.44;1
CLIENT
hdd:
dev9x:
pfs:
cdrom0:\MODULES\DNAS255.IMG;1
MEM2MB.IRX
SIO2MAN.IRX
MCMAN.IRX
MCSERV.IRX
PADMAN.IRX
USBD.IRX
LGKBM.IRX
hub=1
dev=11
ed=32
gtd=64
itd=64
ioreq=128
LIBSD.IRX
CDSTREAM.IRX
SNDDRV.IRX
NETCNF.IRX
icon=cdrom0:\MODULES\SYS_NET.ICO;1
iconsys=cdrom0:\MODULES\ICON.SYS;1
SDRDRV.IRX
INET.IRX
INETCTL.IRX
-no_auto
EZNETCTL.IRX
UNLOADING MODULES
cdrom0:\MODULES\%s;1
Can't load module "%s"
SCE_EBINDMISS
SCE_EVERSIONMISS
SCE_ECALLMISS
ERR CODE : %d
cdrom0:\MODULES2\%s;1
Processing authored image.
Encrypting...
DNAS Encrypt Length Failed (%d)
DNAS Encrypt Failed (%d)
Decrypting...
DNAS Decrypt Length Failed (%d)
DNAS Decrypt Failed (%d)
Decompressing...
Decompression failed (%s)
sceDNAS2InstExtractDataLength_nohdd() failed (%d) - Hardware Mismatch
ERROR
sceDNAS2InstExtractDataLength_nohdd() failed (%d) - Corrupt/Invalid
Decrypted size: %d
sceDNAS2InstExtractData_nohdd() failed (%d) - Hardware Mismatch
sceDNAS2InstExtractData_nohdd() failed (%d) - Corrupt/Invalid
Decrypted ok!
Decompressed ok!
Verifying / loading .ENC (%s) from memory image.
snDllLoaded() failed.
mc0:/BASLUS-20744EQONLINE/%s.ENC
Trying: %s
cdrom0:\%s.AUT;1
Loading Dll Image (%s) (size = %d) -----------------------
READ FAILED - Forcing/retrying disc version...
DLL INITIALIZATION FAILED - Forcing/retrying disc version...
DLL Initialize         : OK
Unloading .REL %08x, size %d
DLL UNLOADING (%08x)
cdrom0:\UTIL.REL;1
Can't open util.rel
Loading UTIL Dll (size = %d) -----------------------
UTIL REL INITIALIZATION FAILED - Forcing/retrying disc version...
UTIL REL Initialize         : OK
sceDNAS2CryptInit_nohdd() returned %d
Done.
UNLOADING UTIL REL
\DATA3\%sX.16;1
\DATA3\%s%d.16;1
sceCdSearchFile FAIL (%s)
CD Retry!
LOADING
eznetcnf
"%s" module not found (%d)
could not bind to eznetcnf service
**** eznetcnf RPC server not currently running
**** eznetcnf RPC data size 0x%x exceeds buffer size 0x%x
%s> 
C:/code-frontiers-gm/eznetcnf/libezcnf.c
ezNetCnfGetCount returned %d
ezNetCnfGetCombinationList returned %d
ezNetCnfGetCombination: pList is empty
ezNetCnfGetCombination: invalid Combination number (%d)
ezNetCnfGetDefault: pList is empty
ezNetCnfGetDefault: defaultNumber exceeds listLength (%d)
ezNetCnfSetDefault returned %d
ezNetCnfGetNetcnfifData returned %d
eznetctl
"%s" module not found (%d)
could not bind to eznetctl service
**** eznetctl RPC server not currently running
**** eznetctl RPC data size 0x%x exceeds buffer size 0x%x
%s> 
C:/code-frontiers-gm/eznetcnf/libezctl.c
eCtlGetPropertiesAddress returned 0
ezNetCtlSetProperties returned %d
ezNetCtlSetCombination returned %d
ezNetCtlGetStatus returned %d
warning: SIF DMA transfer size %d padded to %d
adler32.c
1.1.4
compress.c
 n;^
Qkkbal
i]Wb
9a&g
MGiI
wn>Jj
#.zf
+o*7
-crc32.c
 deflate 1.1.4 Copyright 1995-2002 Jean-loup Gailly 
1.1.4
deflate.c
1.1.4
%c%c%c%c%c%c%c%c%c%c
<fd:%d>
gzio.c
invalid block type
invalid stored block lengths
too many length or distance symbols
invalid bit length repeat
infblock.c
invalid literal/length code
invalid distance code
infcodes.c
invalid distance code
invalid literal/length code
inffast.c
unknown compression method
invalid window size
incorrect header check
need dictionary
incorrect data check
inflate.c
 inflate 1.1.4 Copyright 1995-2002 Mark Adler 
oversubscribed dynamic bit lengths tree
incomplete dynamic bit lengths tree
oversubscribed literal/length tree
incomplete literal/length tree
oversubscribed distance tree
incomplete distance tree
empty distance tree with lengths
inftrees.c
infutil.c
								
trees.c
1.1.4
uncompr.c
incompatible version
buffer error
insufficient memory
data error
stream error
file error
stream end
need dictionary
1.1.4
zutil.c
bad_alloc
bad_alloc
bad_alloc
13bad_exception
9exception
bad_alloc
9bad_alloc
bad_alloc
bad_alloc
17__class_type_info
14__si_type_info
16__user_type_info
10bad_typeid
8bad_cast
9type_info
bad_alloc
17__array_type_info
16__ptmd_type_info
16__ptmf_type_info
16__func_type_info
19__builtin_type_info
16__attr_type_info
19__pointer_type_info
lgkbmlib::CreateSema Error creating device_sema
LgKbM library version %d.%02d (built on Oct 29 2002 at 16:09:12)
	* reader thread priority %d
driver version = %d.%02d
lgkbmlib::CreateSema Error creating rpc_sema
bind error libmc 
libmc: too old release of mcserv.irx
libmc: too old release of mcman.irx
sceMcUdCheckNewCard RPC faild
mode must be 0 in this version.
%s: send buffer addr is not 64 byte align. %08x=n
sceSifMCallRpc
%s: receive buffer addr is not 64 byte align. %08x=n
rom0:ROMVER
sceGsDefDispEnv:Not support displaymode for 0x%x!!
sceGsPutDrawEnv: DMA Ch.2 does not terminate
libdma: sync timeout
libpad: sceSifSetDma faild
libpad: tPadDma Structure Invalid
libpad: Module version mismatch 
[libpad.a = %d.%d, padman.irx = %d.%d]
libpad: buffer addr is not 64 byte align. %08x
libpad: pad port is already open [%d][%d]
ERROR
STABLE
EXECCMD
FINDCTP1
DISCONNECT
BUSY
FAILED
COMPLETE
sceCdCbfunc= %d sceCdCbfunc_num= %d
Libcdvd bind err CdSearchFile
ee call cmd search %s
search name %s
search size %d
search loc lbn %d
Ncmd fail sema cur_cmd:%d keep_cmd:%d
Libcdvd bind err N CMD
N cmd wait
S cmd wait
Scmd fail sema cur_cmd:%d keep_cmd:%d
Libcdvd bind err S cmd
Libcdvd bind err %d CD_Init %d
Libcdvd Exit
DiskReady 0
Libcdvd bind err CdDiskReady
DiskReady ended
call cdread cmd
cdread end
Libcdvd call Clock read 1
Libcdvd call Clock read 2
sceCdStRead call read size= %d mode= %d
sceCdStRead BLK Read cur_size= %d read_size= %d req_size= %d err 0x%x
sceCdStRead BLK Read Ended
sceCdStPause call
sceCdStResume call
sceCdStStat call
call cdreadstm call
call cdreadstm cmd
cdread end
( 0 0(8pack_header_field_flag needs to be '0' in PS
The size of work area is too small
work area size is too small
image buffer needs to be aligned to 64byte boundary(0x%08x)
the second field is missing
[MPEG ERROR]%s
vertical size > 2800
_chroma_format needs to be 1: 420
Unsupported profile/level
_sequenceScalableExtension() is not implemented
Unknown Extension
_pictureSpatialScalableExtension is not supported
_pictureTemporalScalableExtension is not supported
Invalid modion type -- ignored(%d)
(a) invalid motion_type(%d)-0
(b) invalid motion_type(%d)-1
(c) invalid motion_type(%d)-2
intra && skip MB
Error code detected(BDEC)
Invalid macroblock_address_increment code(0x%08x)
= Skip to the next picture =
slice_start_code(0x%08x) out of range
_sliceA0(): error happens
Too many macroblocks in picture
skiped macroblock in I picure is not allowed
Invalid macroblock_type code: 0
load_chroma_intra_quantizer_matrix == 1
load_chroma_non_intra_quantizer_matrix == 1
odd number of field pictures
unknown picture sutructure
Too small buffer size for %dx%d picture
CSC handler error
sceSdRemoteInit() RPC bind error!
Can't start thread for streaming.
CallRpc() in Libnet send:%d, recv:%d, max:%d
sceLibnetInitialize() buffersize
1h!"3
?acos
atan2
log10
sqrt
acosf
atan2f
fmodf
powf
sqrtf
<UUUUUU
UUUUUU
UUUUUU
!	@	
UUUUUU
?v<y5
UUUUU
?DR>
?v<y5
=UUUUUU
?v<y5
?DR>
UUUUU
?v<y5
?v<y5
33333
NEJ(~
?>UUUUU
ri7f>
UUUUUU
NEJ(~
33333
ri7f>
>UUUUU
!	@|
!)@:F,@zj/@\G1@|
:@:F<@Z
=@zj?@L~@@\GA@l
?1cb
?1cb
?1cb
?1cb
@a30
I@h!"4
Iq`B
>U2l>B
83O8v?
?CD57
?LUUUUU
LUUUUU
-Dt>
@ %z8
?IUUUUU
?IUUUUU
IUUUUU
864/
I?h!"3
ik;H
UUUUU
v$K{
?/lj,D
Iq`B
         (((((                  
AAAAAA
BBBBBB
Memory allocation statistics %s
Not owner
No such file or directory
No such process
Interrupted system call
I/O error
No such device or address
Arg list too long
Exec format error
Bad file number
No children
No more processes
Not enough space
Permission denied
Bad address
Block device required
Device or resource busy
File exists
Cross-device link
No such device
Not a directory
Is a directory
Invalid argument
Too many open files in system
Too many open files
Not a character device
Text file busy
File too large
No space left on device
Illegal seek
Read-only file system
Too many links
Broken pipe
Math argument
Result too large
No message of desired type
Identifier removed
Deadlock
No lock
Not a stream
Stream ioctl timeout
No stream resources
Machine is not on the network
No package
Resource is remote
Virtual circuit is gone
Advertise error
Srmount error
Communication error
Protocol error
Multihop attempted
Bad message
Cannot access a needed shared library
Accessing a corrupted shared library
.lib section in a.out corrupted
Attempting to link in more shared libraries than system limit
Cannot exec a shared library directly
Function not implemented
No more files
Directory not empty
File or path name too long
Too many symbolic links
No buffer space available
Address family not supported by protocol family
Protocol wrong type for socket
Socket operation on non-socket
Protocol not available
Can't send after socket shutdown
Connection refused
Address already in use
Software caused connection abort
?                0000000000000000Inf
0123456789abcdef
(null)
0123456789ABCDEF
bug in vfprintf: bad base
Infinity
aCoc
max system bytes = %10u
system bytes     = %10u
in use bytes     = %10u
vH7B
W4vC
O8M2
[%Co
                00000000000000000123456789abcdef
(null)
0123456789ABCDEF
bug in vfprintf: bad base
## internel error in libkernl.a!
TTY: packet size larger than expect
TTY: receive error
TTY: send err %d
TTY: err ti->wlen=%08x
0.%d
e+%d
....
....
rom0:UDNL 
too long parameter '%s'
# TLB spad=0 kernel=1:%d default=%d:%d extended=%d:%d
# TLB over flow (1)
# TLB over flow (2)
# TLB over flow (3)
.symtab
.strtab
.shstrtab
.text
.reginfo
.mdebug.eabi64
.data
.sndata
.rodata
.gcc_except_table
.sbss
.bss
